{
  "CacheSourceKey": "155noff",
  "CachePdfKey": "155noff/155noff-b3umsz.pdf",
  "CacheXpzKey": "155noff/155noff-zu50e9.xpz",
  "CacheInfoKey": "155noff/155noff-zu50e9.json",
  "CacheCopyKey": null,
  "Document": "D:\\DMSLatest\\Vouchers\\Payment Voucher\\Agreement Type(0).xlsx",
  "DocumentHandlerType": null,
  "DocumentHandlerParameters": null,
  "DocumentLocation": null,
  "DocumentFileName": "Agreement Type(0).xlsx",
  "InputOptions": {
    "$type": "GleamTech.DocumentUltimate.SpreadsheetInputOptions, GleamTech.DocumentUltimate",
    "OutputSheetRange": "visible",
    "RenderColumnsFitToPages": 1,
    "RenderRowsFitToPages": 0,
    "RenderHeadings": false,
    "RenderGridlines": false,
    "RenderTitleColumns": null,
    "RenderTitleRows": null,
    "RenderArea": null,
    "RenderBlackAndWhite": false,
    "RenderCenterHorizontally": false,
    "RenderCenterVertically": false,
    "Format": "Xlsx",
    "Password": null
  },
  "PdfOutputOptions": {
    "Watermarks": [],
    "FastWebViewEnabled": false,
    "Password": null,
    "Format": "Pdf"
  },
  "XpzOutputOptions": {
    "Password": "155noff",
    "HighQualityEnabled": false,
    "Format": "Xpz"
  }
}