{
  "CacheSourceKey": "2nzr8l",
  "CachePdfKey": "2nzr8l/2nzr8l-dpbh9b.pdf",
  "CacheXpzKey": "2nzr8l/2nzr8l-1nvmk5.xpz",
  "CacheInfoKey": "2nzr8l/2nzr8l-1nvmk5.json",
  "CacheCopyKey": null,
  "Document": "D:\\DMSLatest\\Vouchers\\Payment Voucher\\DMS-ProjectPlanner(0).xls",
  "DocumentHandlerType": null,
  "DocumentHandlerParameters": null,
  "DocumentLocation": null,
  "DocumentFileName": "DMS-ProjectPlanner(0).xls",
  "InputOptions": {
    "$type": "GleamTech.DocumentUltimate.SpreadsheetInputOptions, GleamTech.DocumentUltimate",
    "OutputSheetRange": "visible",
    "RenderColumnsFitToPages": 1,
    "RenderRowsFitToPages": 0,
    "RenderHeadings": false,
    "RenderGridlines": false,
    "RenderTitleColumns": null,
    "RenderTitleRows": null,
    "RenderArea": null,
    "RenderBlackAndWhite": false,
    "RenderCenterHorizontally": false,
    "RenderCenterVertically": false,
    "Format": "Xls",
    "Password": null
  },
  "PdfOutputOptions": {
    "Watermarks": [],
    "FastWebViewEnabled": false,
    "Password": null,
    "Format": "Pdf"
  },
  "XpzOutputOptions": {
    "Password": "2nzr8l",
    "HighQualityEnabled": false,
    "Format": "Xpz"
  }
}