{
  "CacheSourceKey": "b5tk8k",
  "CachePdfKey": "b5tk8k/b5tk8k-1nuy2vv.pdf",
  "CacheXpzKey": "b5tk8k/b5tk8k-19thk6b.xpz",
  "CacheInfoKey": "b5tk8k/b5tk8k-19thk6b.json",
  "CacheCopyKey": null,
  "Document": "D:\\DMSLatest\\BM Data Integration(1).txt",
  "DocumentHandlerType": null,
  "DocumentHandlerParameters": null,
  "DocumentLocation": null,
  "DocumentFileName": "BM Data Integration(1).txt",
  "InputOptions": {
    "$type": "GleamTech.DocumentUltimate.WordProcessingInputOptions, GleamTech.DocumentUltimate",
    "FieldFileName": null,
    "UpdateFields": true,
    "Format": "Txt",
    "Password": null
  },
  "PdfOutputOptions": {
    "Watermarks": [],
    "FastWebViewEnabled": false,
    "Password": null,
    "Format": "Pdf"
  },
  "XpzOutputOptions": {
    "Password": "b5tk8k",
    "HighQualityEnabled": false,
    "Format": "Xpz"
  }
}