{
  "CacheSourceKey": "ivncil",
  "CachePdfKey": "ivncil/ivncil-1nuy2vv.pdf",
  "CacheXpzKey": "ivncil/ivncil-hstz5n.xpz",
  "CacheInfoKey": "ivncil/ivncil-hstz5n.json",
  "CacheCopyKey": null,
  "Document": "D:\\DMSLatest\\Agreements\\Rental Agreement\\Bimetal-Remote(1).txt",
  "DocumentHandlerType": null,
  "DocumentHandlerParameters": null,
  "DocumentLocation": null,
  "DocumentFileName": "Bimetal-Remote(1).txt",
  "InputOptions": {
    "$type": "GleamTech.DocumentUltimate.WordProcessingInputOptions, GleamTech.DocumentUltimate",
    "FieldFileName": null,
    "UpdateFields": true,
    "Format": "Txt",
    "Password": null
  },
  "PdfOutputOptions": {
    "Watermarks": [],
    "FastWebViewEnabled": false,
    "Password": null,
    "Format": "Pdf"
  },
  "XpzOutputOptions": {
    "Password": "ivncil",
    "HighQualityEnabled": false,
    "Format": "Xpz"
  }
}