{
  "CacheSourceKey": "2vfam2",
  "CachePdfKey": "2vfam2/2vfam2-137ib0k.pdf",
  "CacheXpzKey": "2vfam2/2vfam2-1iquqr4.xpz",
  "CacheInfoKey": "2vfam2/2vfam2-1iquqr4.json",
  "CacheCopyKey": null,
  "Document": "D:\\DMS Documents\\Invoices\\Inward Invoices\\Calender(0).txt",
  "DocumentHandlerType": null,
  "DocumentHandlerParameters": null,
  "DocumentLocation": null,
  "DocumentFileName": "Calender(0).txt",
  "InputOptions": {
    "$type": "GleamTech.DocumentUltimate.WordProcessingInputOptions, GleamTech.DocumentUltimate",
    "FieldFileName": null,
    "UpdateFields": true,
    "Format": "Txt",
    "Password": null
  },
  "PdfOutputOptions": {
    "Watermarks": [
      {
        "$type": "GleamTech.DocumentUltimate.TextWatermark, GleamTech.DocumentUltimate",
        "Text": "DocumentUltimate",
        "TextAlignment": "Left",
        "Font": null,
        "FontColor": "Red",
        "UseFontSize": false,
        "HorizontalAlignment": "Center",
        "VerticalAlignment": "Center",
        "HorizontalDistance": 0.0,
        "VerticalDistance": 0.0,
        "DistanceIsPercentage": false,
        "Width": 50.0,
        "Height": 50.0,
        "SizeIsPercentage": true,
        "Rotation": 0.0,
        "Opacity": 50.0,
        "InBackground": false,
        "AnnotationMode": false,
        "PrintVisible": true,
        "ScreenVisible": true,
        "PageRange": "all"
      }
    ],
    "FastWebViewEnabled": false,
    "Password": null,
    "Format": "Pdf"
  },
  "XpzOutputOptions": {
    "Password": "2vfam2",
    "HighQualityEnabled": false,
    "Format": "Xpz"
  }
}